1 10 20
100 200 125
201 210 89
900 1000 174
2000 300 182
10 1 20
400 600 142
25 600 144
2000 300 182
1 1 1
1000 2000 182
990000 999999 440
800000 500000 509
239001 889445 525
563455 971503 525
260280 865548 525
978656 993706 427
666358 886263 525
91186 863315 525
426554 761127 509
25876 41582 324
901016 967844 507
754783 887055 525
586717 969783 525
948495 971958 458
439262 445539 356
630991 723096 504
903783 925307 476
78000 918005 525
711762 900113 525
285514 647097 509
609792 942270 525
103209 144309 375
53993 373495 443
899410 942322 507
769840 798573 468
622113 381747 470
749868 970603 525
337970 972796 525
825369 836302 419
498128 647352 509
307165 650663 509
77467 929642 525
483959 794062 509
751484 828149 468
943989 966493 414
791405 964235 525
690253 951321 525
230366 337444 443
743140 965186 525
440446 706263 509
660321 666977 442
988154 994486 365
429812 432702 343
958296 970927 458
240200 977565 525
399449 788627 509
240084 419439 449
710022 875799 525
583170 730473 509
398109 905116 525
406891 952794 525
27052 377636 443
819440 906001 525
872049 884875 432
541775 859329 525
925803 991858 507
18720 324639 443
544759 866331 525
141160 763356 509
309072 998323 525
576857 606828 434
455905 547298 470
138214 246708 443
923335 931809 476
873609 879607 432
814585 945061 525
185901 806523 509
454194 558694 470
516692 821176 509
293646 718360 509
723527 939576 525
313816 502949 449
1 322085 443
437739 619058 470
275262 594804 470
272782 409526 441
201495 532602 470
917964 990254 507
935360 958780 507
712970 935800 525
933563 967643 507
144641 434570 449
340773 904715 525
376385 525114 470
300566 502132 449
808099 858061 525
266448 426828 449
678534 956980 525
741932 811929 468
362282 987773 525
294365 977969 525
859236 989995 507
173816 380466 443
307215 751102 509
479520 940956 525
70596 880882 525
68693 884797 525
188474 192327 360
640105 911260 525
262692 728435 509
67199 562218 470
637488 867102 525
515159 771733 509
63744 188861 383
